{
    "antifeatures": {
        "Ads": "Ứng dụng này có quảng cáo",
        "DisabledAlgorithm": "Ứng dụng này có chữ kí bảo mật yếu",
        "KnownVuln": "Ứng dụng này có lỗ hổng bảo mật đã bị phát hiện",
        "NonFreeAdd": "Ứng dụng này khuyến khích sử dụng phần mở rộng không tự do",
        "NonFreeAssets": "Ứng dụng này có những phần không tự do",
        "NonFreeDep": "Ứng dụng này phụ thuộc vào các ứng dụng không tự do khác",
        "NonFreeNet": "Ứng dụng này khuyến khích sử dụng dịch vụ mạng không tự do",
        "Tracking": "Ứng dụng này theo dõi và báo cáo hoạt động của bạn",
        "UpstreamNonFree": "Mã nguồn không hoàn toàn tự do"
    },
    "app_categories": {
        "Connectivity": "Kết nối",
        "Development": "Lập trình",
        "Games": "Trò chơi",
        "Graphics": "Đồ hoạ",
        "Internet": "Internet",
        "Money": "Tài chính",
        "Multimedia": "Đa phương tiện",
        "Navigation": "Điều hướng",
        "Phone & SMS": "Đàm thoại & nhắn tin",
        "Reading": "Đọc",
        "Science & Education": "Khoa học & giáo dục",
        "Security": "Bảo mật",
        "Sports & Health": "Thể thao & sức khoẻ",
        "System": "Hệ thống",
        "Theming": "Giao diện",
        "Time": "Thời gian",
        "Writing": "Soạn thảo",
        "show_all_packages": "Xem %d ứng dụng"
    },
    "permissions": {
        "permdesc_acceptHandovers": "Cho phép ứng dụng tiếp tục cuộc gọi được bắt đầu trong một ứng dụng khác.",
        "permdesc_accessBackgroundLocation": "Nếu bạn cấp cho ứng dụng quyền truy cập bổ sung vào vị trị gần đúng hoặc chính xác, thì ứng dụng có thể truy cập vào vị trí đó khi chạy trong nền.",
        "permdesc_accessCoarseLocation": "Bất cứ khi nào chạy trong nền trước, ứng dụng này có thể nhận thông tin vị trí dựa trên nguồn mạng, chẳng hạn như trạm phát sóng di động và mạng Wi-Fi. Để ứng dụng có thể dùng các dịch vụ vị trí, điện thoại của bạn phải có các dịch vụ này ở trạng thái bật.",
        "permdesc_accessDrmCertificates": "Cho phép ứng dụng cung cấp và sử dụng chứng chỉ DRM. Không cần thiết cho các ứng dụng thông thường.",
        "permdesc_accessFineLocation": "Bất cứ khi nào chạy trong nền trước, ứng dụng này có thể nhận thông tin vị trí chính xác của bạn. Để ứng dụng có thể sử các dụng dịch vụ vị trí, điện thoại của bạn phải có các dịch vụ này và dịch vụ ở trạng thái bật. Hoạt động này có thể tăng mức tiêu thụ pin.",
        "permdesc_accessImsCallService": "Cho phép ứng dụng sử dụng dịch vụ IMS để thực hiện cuộc gọi mà không có sự can thiệp của bạn.",
        "permdesc_accessLocationExtraCommands": "Cho phép ứng dụng truy cập vào các lệnh của nhà cung cấp vị trí bổ sung. Điều này có thể cho phép ứng dụng can thiệp vào hoạt động của Hệ thống định vị toàn cầu (GPS) hoặc các nguồn vị trí khác.",
        "permdesc_accessNetworkConditions": "Cho phép ứng dụng quan sát các điều kiện mạng. Không bao giờ cần cho ứng dụng thông thường.",
        "permdesc_accessNetworkState": "Cho phép ứng dụng xem thông tin về các kết nối mạng như mạng nào thoát và mạng nào được kết nối.",
        "permdesc_accessNotifications": "Cho phép ứng dụng truy xuất, kiểm tra và xóa thông báo, bao gồm những thông báo được đăng bởi các ứng dụng khác.",
        "permdesc_accessWifiState": "Cho phép ứng dụng xem thông tin về mạng Wi-Fi, chẳng hạn như Wi-Fi đã được bật chưa và tên của thiết bị Wi-Fi được kết nối.",
        "permdesc_accessWimaxState": "Cho phép ứng dụng xác định liệu WiMAX đã được bật chưa và thông tin về bất kỳ mạng WiMAX nào được kết nối.",
        "permdesc_access_notification_policy": "Cho phép ứng dụng đọc và ghi cấu hình Không làm phiền.",
        "permdesc_activityRecognition": "Ứng dụng này có thể nhận dạng hoạt động thể chất của bạn.",
        "permdesc_addVoicemail": "Cho phép ứng dụng thêm thông báo vào hộp thư thoại đến của bạn.",
        "permdesc_answerPhoneCalls": "Cho phép ứng dụng trả lời cuộc gọi điện thoại đến.",
        "permdesc_audioWrite": "Cho phép ứng dụng này sửa đổi bộ sưu tập nhạc của bạn.",
        "permdesc_bindCarrierMessagingService": "Cho phép chủ sở hữu liên kết với giao diện cấp cao nhất của dịch vụ nhắn tin của nhà cung cấp dịch vụ. Không cần thiết cho các ứng dụng thông thường.",
        "permdesc_bindCarrierServices": "Cho phép chủ sở hữu liên kết với các dịch vụ của nhà cung cấp. Không bao giờ cần cho các ứng dụng thông thường.",
        "permdesc_bindConditionProviderService": "Cho phép chủ sở hữu liên kết với giao diện cấp cao nhất của dịch vụ trình cung cấp điều kiện. Không cần thiết cho các ứng dụng thông thường.",
        "permdesc_bindDreamService": "Cho phép chủ sở hữu liên kết với giao diện cấp cao nhất của dịch vụ dream. Không cần thiết cho các ứng dụng thông thường.",
        "permdesc_bindNotificationListenerService": "Cho phép chủ sở hữu liên kết với giao diện cấp cao nhất của dịch vụ trình xử lý thông báo. Không cần thiết cho các ứng dụng thông thường.",
        "permdesc_bind_connection_service": "Cho phép ứng dụng tương tác với dịch vụ điện thoại để thực hiện/nhận cuộc gọi.",
        "permdesc_bind_incall_service": "Cho phép ứng dụng kiểm soát thời gian và cách người dùng nhìn thấy màn hình trong cuộc gọi.",
        "permdesc_bluetooth": "Cho phép ứng dụng xem cấu hình của Bluetooth trên điện thoại, tạo và chấp nhận các kết nối với các thiết bị được ghép nối.",
        "permdesc_bluetoothAdmin": "Cho phép ứng dụng định cấu hình điện thoại Bluetooth cục bộ cũng như phát hiện và ghép nối với các thiết bị từ xa.",
        "permdesc_bodySensors": "Cho phép ứng dụng truy cập dữ liệu từ bộ cảm biến giám sát tình trạng sức khỏe của bạn, ví dụ như nhịp tim.",
        "permdesc_broadcastSticky": "Cho phép ứng dụng gửi nội dung truyền phát hấp dẫn người xem. Nội dung này sẽ vẫn còn sau khi quá trình truyền phát kết thúc. Việc sử dụng quá mức có thể làm cho điện thoại bị chậm hoặc không ổn định do khiến điện thoại sử dụng quá nhiều bộ nhớ.",
        "permdesc_callCompanionApp": "Cho phép ứng dụng xem và kiểm soát cuộc gọi đến trên thiết bị. Ứng dụng sẽ xem và kiểm soát các thông tin như số điện thoại của các cuộc gọi và trạng thái cuộc gọi.",
        "permdesc_callPhone": "Cho phép ứng dụng gọi các số điện thoại mà không cần sự can thiệp của bạn. Việc này có thể dẫn đến các khoản phí hoặc cuộc gọi không mong muốn. Lưu ý rằng quyền này không cho phép ứng dụng gọi các số khẩn cấp. Các ứng dụng độc hại có thể khiến bạn tốn tiền do thực hiện cuộc gọi mà không cần sự xác nhận của bạn.",
        "permdesc_camera": "Ứng dụng này có thể chụp ảnh và quay video bằng máy ảnh bất cứ lúc nào.",
        "permdesc_changeNetworkState": "Cho phép ứng dụng thay đổi trạng thái kết nối mạng.",
        "permdesc_changeTetherState": "Cho phép ứng dụng thay đổi trạng thái của kết nối mạng được dùng làm điểm truy cập Internet.",
        "permdesc_changeWifiMulticastState": "Cho phép ứng dụng nhận các gói được gửi đến tất cả các thiết bị trên mạng Wi-Fi các địa chỉ đa hướng, chứ không phải chỉ điện thoại của bạn. Chế độ này sử dụng nhiều năng lượng hơn chế độ không phát đa hướng.",
        "permdesc_changeWifiState": "Cho phép ứng dụng kết nối ngắt kết nối khỏi các điểm truy cập Wi-Fi và để thực hiện thay đổi đối với cấu hình thiết bị cho mạng Wi-Fi.",
        "permdesc_changeWimaxState": "Cho phép ứng dụng kết nối điện thoại và ngắt kết nối điện thoại khỏi mạng WiMAX.",
        "permdesc_connection_manager": "Cho phép ứng dụng quản lý kết nối viễn thông.",
        "permdesc_control_incall_experience": "Cho phép ứng dụng cung cấp trải nghiệm người dùng trong cuộc gọi.",
        "permdesc_createNetworkSockets": "Cho phép ứng dụng tạo cổng mạng và sử dụng giao thức mạng tùy chỉnh. Trình duyệt và các ứng dụng khác cung cấp các phương tiện để gửi dữ liệu lên internet do đó không yêu cầu quyền này để gửi dữ liệu lên internet.",
        "permdesc_disableKeyguard": "Cho phép ứng dụng tắt khóa phím và bất kỳ bảo mật mật khẩu được liên kết nào. Ví dụ: điện thoại tắt khóa phím khi nhận được cuộc gọi đến, sau đó bật lại khóa phím khi cuộc gọi kết thúc.",
        "permdesc_enableCarMode": "Cho phép ứng dụng bật chế độ trên ô tô.",
        "permdesc_expandStatusBar": "Cho phép ứng dụng mở rộng hoặc thu gọn thanh trạng thái.",
        "permdesc_foregroundService": "Cho phép ứng dụng sử dụng các dịch vụ trên nền trước.",
        "permdesc_getAccounts": "Cho phép ứng dụng nhận danh sách các tài khoản mà điện thoại biết. Danh sách này có thể bao gồm bất kỳ tài khoản nào được tạo bởi các ứng dụng mà bạn đã cài đặt.",
        "permdesc_getPackageSize": "Cho phép ứng dụng truy xuất mã, dữ liệu và kích thước bộ nhớ đệm của chính ứng dụng",
        "permdesc_getTasks": "Cho phép ứng dụng truy xuất thông tin về các công việc đã và đang chạy gần đây. Việc này có thể cho phép ứng dụng phát hiện thông tin về những ứng dụng nào đã được sử dụng trên thiết bị.",
        "permdesc_handoverStatus": "Cho phép ứng dụng này nhận thông tin về các lần chuyển hiện tại của Android Beam",
        "permdesc_imagesWrite": "Cho phép ứng dụng này sửa đổi bộ sưu tập ảnh của bạn.",
        "permdesc_install_shortcut": "Cho phép ứng dụng thêm lối tắt trên Màn hình chính mà không cần sự can thiệp của người dùng.",
        "permdesc_invokeCarrierSetup": "Cho phép chủ sở hữu gọi ra ứng dụng cấu hình do nhà cung cấp dịch vụ cung cấp. Không cần thiết cho các ứng dụng thông thường.",
        "permdesc_killBackgroundProcesses": "Cho phép ứng dụng kết thúc các quá trình nền của các ứng dụng khác. Việc này có thể khiến các ứng dụng khác dừng chạy.",
        "permdesc_manageFace": "Cho phép ứng dụng gọi ra các phương pháp để thêm và xóa mẫu khuôn mặt sử dụng.",
        "permdesc_manageFingerprint": "Cho phép ứng dụng gọi các phương pháp để thêm và xóa các mẫu vân tay để sử dụng.",
        "permdesc_manageNetworkPolicy": "Cho phép ứng dụng quản lý chính sách mạng và xác định quy tắc dành riêng cho ứng dụng.",
        "permdesc_manageOwnCalls": "Cho phép ứng dụng định tuyến cuộc gọi thông qua hệ thống nhằm cải thiện trải nghiệm gọi điện.",
        "permdesc_manageProfileAndDeviceOwners": "Cho phép ứng dụng đặt chủ sở hữu hồ sơ và chủ sở hữu thiết bị.",
        "permdesc_mediaLocation": "Cho phép ứng dụng này đọc vị trí từ bộ sưu tập phương tiện của bạn.",
        "permdesc_modifyAudioSettings": "Cho phép ứng dụng sửa đổi cài đặt âm thanh chung chẳng hạn như âm lượng và loa nào được sử dụng cho thiết bị ra.",
        "permdesc_modifyNetworkAccounting": "Cho phép ứng dụng sửa đổi cách tính mức sử dụng mạng so với ứng dụng. Không dành cho các ứng dụng thông thường.",
        "permdesc_nfc": "Cho phép ứng dụng giao tiếp với thẻ Giao tiếp trường gần (NFC), thẻ và trình đọc.",
        "permdesc_persistentActivity": "Cho phép ứng dụng tạo sự đồng nhất cho các phần của mình trong bộ nhớ. Việc này có thể hạn chế bộ nhớ đối với các ứng dụng khác đang làm chậm điện thoại.",
        "permdesc_processOutgoingCalls": "Cho phép ứng dụng xem số được gọi trong một cuộc gọi đi với tùy chọn chuyển hướng cuộc gọi đến một số khác hoặc hủy cuộc gọi đó hoàn toàn.",
        "permdesc_readCalendar": "Ứng dụng này có thể đọc tất cả các sự kiện lịch được lưu trữ trên điện thoại của bạn và chia sẻ hoặc lưu dữ liệu lịch của bạn.",
        "permdesc_readCallLog": "Ứng dụng này có thể đọc nhật ký cuộc gọi của bạn.",
        "permdesc_readCellBroadcasts": "Cho phép ứng dụng đọc tin nhắn quảng bá mà thiết bị của bạn nhận được. Tin nhắn quảng bá cảnh báo được gửi ở một số địa điểm nhằm cảnh báo cho bạn về các tình huống khẩn cấp. Các ứng dụng độc hại có thể gây ảnh hưởng đến hiệu suất hoặc hoạt động của thiết bị của bạn khi nhận được tin nhắn quảng bá khẩn cấp.",
        "permdesc_readContacts": "Cho phép ứng dụng đọc dữ liệu về các liên hệ được lưu trữ trên điện thoại của bạn, bao gồm tần suất bạn đã gọi điện, gửi email hoặc liên lạc theo các cách khác với những người cụ thể. Quyền này cho phép ứng dụng lưu dữ liệu liên lạc của bạn và các ứng dụng độc hại có thể chia sẻ dữ liệu liên lạc mà bạn không biết.",
        "permdesc_readHistoryBookmarks": "Cho phép ứng dụng đọc tất cả các URL mà Trình duyệt đã truy cập và tất cả các dấu trang của Trình duyệt. Lưu ý: quyền này có thể không được thực thi bằng trình duyệt của bên thứ ba hoặc các ứng dụng khác có khả năng duyệt web.",
        "permdesc_readInstallSessions": "Cho phép ứng dụng đọc phiên cài đặt. Thao tác này sẽ cho phép ứng dụng xem chi tiết về gói cài đặt đang hoạt động.",
        "permdesc_readNetworkUsageHistory": "Cho phép ứng dụng đọc thông tin lịch sử sử dụng mạng của các mạng và ứng dụng cụ thể.",
        "permdesc_readPhoneNumbers": "Cho phép ứng dụng truy cập số điện thoại của thiết bị.",
        "permdesc_readPhoneState": "Cho phép ứng dụng truy cập vào các tính năng điện thoại của thiết bị. Quyền này cho phép ứng dụng xác định số điện thoại và ID thiết bị, cho dù cuộc gọi có hiện hoạt hay không và số từ xa có được kết nối bằng một cuộc gọi hay không.",
        "permdesc_readSms": "Ứng dụng này có thể đọc tất cả các tin nhắn SMS (văn bản) được lưu trữ trên điện thoại của bạn.",
        "permdesc_readSyncSettings": "Cho phép ứng dụng đọc cài đặt đồng bộ hóa cho tài khoản. Ví dụ: việc này có thể xác định liệu ứng dụng Mọi người đã được đồng bộ hóa với tài khoản chưa.",
        "permdesc_readSyncStats": "Cho phép ứng dụng đọc thống kê đồng bộ hóa cho tài khoản, bao gồm lịch sử của các sự kiện đồng bộ hóa và lượng dữ liệu được đồng bộ hóa.",
        "permdesc_receiveBootCompleted": "Cho phép ứng dụng tự chạy ngay khi hệ thống khởi động xong. Quyền này có thể khiến điện thoại mất nhiều thời gian khởi động hơn và cho phép ứng dụng làm chậm toàn bộ điện thoại do ứng dụng luôn chạy.",
        "permdesc_receiveMms": "Cho phép ứng dụng nhận và xử lý tin nhắn MMS. Điều này có nghĩa là ứng dụng có thể theo dõi hoặc xóa tin nhắn được gửi đến thiết bị của bạn mà không hiển thị chúng cho bạn.",
        "permdesc_receiveSms": "Cho phép ứng dụng nhận và xử lý tin nhắn SMS. Điều này có nghĩa là ứng dụng có thể theo dõi hoặc xóa tin nhắn được gửi đến thiết bị của bạn mà không hiển thị chúng cho bạn.",
        "permdesc_receiveWapPush": "Cho phép ứng dụng nhận và xử lý tin nhắn WAP. Quyền này bao gồm khả năng giám sát hoặc xóa tin nhắn được gửi cho bạn mà không hiển thị chúng cho bạn.",
        "permdesc_recordAudio": "Ứng dụng này có thể ghi âm bằng micrô bất kỳ lúc nào.",
        "permdesc_register_call_provider": "Cho phép ứng dụng đăng ký kết nối viễn thông mới.",
        "permdesc_register_sim_subscription": "Cho phép ứng dụng đăng ký kết nối SIM viễn thông mới.",
        "permdesc_removeDrmCertificates": "Cho phép ứng dụng xóa chứng chỉ DRM. Không cần thiết cho các ứng dụng thông thường.",
        "permdesc_reorderTasks": "Cho phép ứng dụng di chuyển công việc sang nền trước và nền sau. Ứng dụng có thể thực hiện việc này mà không cần bạn nhập.",
        "permdesc_requestDeletePackages": "Cho phép ứng dụng yêu cầu xóa gói.",
        "permdesc_requestIgnoreBatteryOptimizations": "Cho phép ứng dụng hỏi quyền để bỏ qua tối ưu hóa pin cho ứng dụng đó.",
        "permdesc_requestInstallPackages": "Cho phép ứng dụng yêu cầu cài đặt gói.",
        "permdesc_requestPasswordComplexity": "Cho phép ứng dụng nắm được độ phức tạp của khóa màn hình (cao, trung bình, thấp hoặc không có). Mức độ này cho biết độ dài và loại khóa màn hình có thể có. Ngoài ra, ứng dụng có thể gợi ý người dùng cập nhật khóa màn hình lên một mức độ nhất định, nhưng người dùng có thể tùy ý bỏ qua và chuyển sang phần khác. Lưu ý rằng khóa màn hình không được lưu dưới dạng văn bản thuần túy, vì vậy, ứng dụng sẽ không biết mật khẩu chính xác.",
        "permdesc_route_media_output": "Cho phép ứng dụng định tuyến thiết bị ra phương tiện đến các thiết bị bên ngoài khác.",
        "permdesc_runInBackground": "Ứng dụng này có thể chạy trong nền. Việc này có thể tiêu hao pin nhanh hơn.",
        "permdesc_sdcardRead": "Cho phép ứng dụng đọc nội dung của bộ nhớ dùng chung.",
        "permdesc_sdcardWrite": "Cho phép ứng dụng ghi nội dung của bộ nhớ dùng chung.",
        "permdesc_sendSms": "Cho phép ứng dụng gửi tin nhắn SMS. Việc này có thể dẫn đến các khoản phí không mong muốn. Các ứng dụng độc hai có thể khiến bạn tốn tiền bằng cách gửi tin nhắn mà không cần sự xác nhận của bạn.",
        "permdesc_setAlarm": "Cho phép ứng dụng đặt báo thức trong ứng dụng đồng hồ báo thức được cài đặt. Một số ứng dụng đồng hồ báo thức có thể không thực thi tính năng này.",
        "permdesc_setInputCalibration": "Cho phép ứng dụng sửa đổi các thông số hiệu chỉnh của màn hình cảm ứng. Không cần cho ứng dụng thông thường.",
        "permdesc_setTimeZone": "Cho phép ứng dụng thay đổi múi giờ của điện thoại.",
        "permdesc_setWallpaper": "Cho phép ứng dụng đặt hình nền hệ thống.",
        "permdesc_setWallpaperHints": "Cho phép ứng dụng đặt gợi ý kích thước hình nền của hệ thống.",
        "permdesc_sim_communication": "Cho phép ứng dụng gửi lệnh đến SIM. Việc này rất nguy hiểm.",
        "permdesc_startViewPermissionUsage": "Cho phép chủ sở hữu cấp quyền cho một ứng dụng. Các ứng dụng thông thường sẽ không bao giờ cần quyền này.",
        "permdesc_statusBar": "Cho phép ứng dụng vô hiệu hóa thanh trạng thái hoặc thêm và xóa biểu tượng hệ thống.",
        "permdesc_statusBarService": "Cho phép ứng dụng trở thành thanh trạng thái.",
        "permdesc_subscribedFeedsRead": "Cho phép ứng dụng lấy thông tin chi tiết về nguồn cấp dữ liệu hiện được đồng bộ hóa.",
        "permdesc_systemAlertWindow": "Ứng dụng này có thể xuất hiện ở phía trên cùng của các ứng dụng khác hoặc các phần khác của màn hình. Điều này có thể cản trở hoạt động sử dụng ứng dụng thông thường và thay đổi cách các ứng dụng khác xuất hiện.",
        "permdesc_transmitIr": "Cho phép ứng dụng sử dụng bộ phát hồng ngoại của điện thoại.",
        "permdesc_uninstall_shortcut": "Cho phép ứng dụng xóa lối tắt trên Màn hình chính mà không cần sự can thiệp của người dùng.",
        "permdesc_useBiometric": "Cho phép ứng dụng dùng phần cứng sinh trắc học để xác thực",
        "permdesc_useDataInBackground": "Ứng dụng này có thể sử dụng dữ liệu trong nền. Việc này có thể tăng mức sử dụng dữ liệu.",
        "permdesc_useFaceAuthentication": "Cho phép ứng dụng sử dụng phần cứng xác thực khuôn mặt để tiến hành xác thực",
        "permdesc_useFingerprint": "Cho phép ứng dụng sử dụng phần cứng vân tay để xác thực",
        "permdesc_use_sip": "Cho phép ứng dụng thực hiện và nhận các cuộc gọi qua SIP.",
        "permdesc_vibrate": "Cho phép ứng dụng kiểm soát bộ rung.",
        "permdesc_videoWrite": "Cho phép ứng dụng này sửa đổi bộ sưu tập video của bạn.",
        "permdesc_wakeLock": "Cho phép ứng dụng ngăn điện thoại chuyển sang chế độ ngủ.",
        "permdesc_writeCalendar": "Ứng dụng này có thể thêm, xóa hoặc thay đổi sự kiện lịch trên điện thoại của bạn. Ứng dụng này có thể gửi các tin nhắn trông có vẻ như được gửi từ các chủ sở hữu lịch hoặc thay đổi sự kiện mà không thông báo cho chủ sở hữu.",
        "permdesc_writeCallLog": "Cho phép ứng dụng sửa đổi nhật ký cuộc gọi trên điện thoại của bạn, bao gồm dữ liệu về các cuộc gọi đến và gọi đi. Các ứng dụng độc hại có thể sử dụng quyền này để xóa hoặc sửa đổi nhật ký cuộc gọi của bạn.",
        "permdesc_writeContacts": "Cho phép ứng dụng sửa đổi dữ liệu về các địa chỉ liên hệ được lưu trữ trên điện thoại của bạn, bao gồm tần suất mà bạn đã gọi, gửi email hoặc liên lạc theo các cách khác với những địa chỉ liên hệ cụ thể. Quyền này cho phép ứng dụng xóa dữ liệu liên lạc.",
        "permdesc_writeGeolocationPermissions": "Cho phép ứng dụng sửa đổi cấp phép vị trí địa lý của Trình duyệt. Ứng dụng độc hại có thể lợi dụng quyền này để cho phép gửi thông tin vị trí tới các trang web tùy ý.",
        "permdesc_writeHistoryBookmarks": "Cho phép ứng dụng sửa đổi lịch sử hoặc dấu trang của Trình duyệt được lưu trữ trên điện thoại của bạn. Việc này có thể cho phép ứng dụng xóa hoặc sửa đổi dữ liệu của Trình duyệt. Lưu ý: quyền này có thể không được thực thi bởi các trình duyệt của bên thứ ba hoặc các ứng dụng khác có khả năng duyệt web.",
        "permdesc_writeSettings": "Cho phép ứng dụng sửa đổi dữ liệu cài đặt của hệ thống. Ứng dụng độc hại có thể làm hỏng cấu hình hệ thống của bạn.",
        "permdesc_writeSyncSettings": "Cho phép ứng dụng sửa đổi cài đặt đồng bộ hóa cho tài khoản. Ví dụ: ứng dụng có thể được sử dụng để cho phép đồng bộ hóa ứng dụng Mọi người với tài khoản.",
        "permgroupbackgroundrequest_location": "Bạn muốn cho phép <b>",
        "permgroupbackgroundrequestdetail_location": "Hiện tại, ứng dụng này chỉ có thể truy cập vào vị trí trong khi bạn dùng",
        "permgroupdesc_activityRecognition": "truy cập vào hoạt động thể chất",
        "permgroupdesc_calendar": "truy cập lịch của bạn",
        "permgroupdesc_calllog": "đọc và ghi nhật ký cuộc gọi điện thoại",
        "permgroupdesc_camera": "chụp ảnh và quay video",
        "permgroupdesc_contacts": "truy cập vào danh bạ của bạn",
        "permgroupdesc_location": "truy cập vị trí của thiết bị này",
        "permgroupdesc_microphone": "ghi âm",
        "permgroupdesc_phone": "thực hiện và quản lý cuộc gọi điện thoại",
        "permgroupdesc_sensors": "truy cập dữ liệu cảm biến về dấu hiệu sinh tồn của bạn",
        "permgroupdesc_sms": "gửi và xem tin nhắn SMS",
        "permgroupdesc_storage": "truy cập ảnh, phương tiện và tệp trên thiết bị của bạn",
        "permgrouplab_activityRecognition": "Hoạt động thể chất",
        "permgrouplab_calendar": "Lịch",
        "permgrouplab_calllog": "Nhật ký cuộc gọi",
        "permgrouplab_camera": "Máy ảnh",
        "permgrouplab_contacts": "Danh bạ",
        "permgrouplab_location": "Vị trí",
        "permgrouplab_microphone": "Micrô",
        "permgrouplab_phone": "Điện thoại",
        "permgrouplab_sensors": "Cảm biến cơ thể",
        "permgrouplab_sms": "Tin nhắn SMS",
        "permgrouplab_storage": "Bộ nhớ",
        "permgrouprequest_activityRecognition": "Bạn cho phép <b>",
        "permgrouprequest_calendar": "Cho phép <b>",
        "permgrouprequest_calllog": "Cho phép <b>",
        "permgrouprequest_camera": "Cho phép <b>",
        "permgrouprequest_contacts": "Cho phép <b>",
        "permgrouprequest_location": "Cho phép <b>",
        "permgrouprequest_microphone": "Cho phép <b>",
        "permgrouprequest_phone": "Cho phép <b>",
        "permgrouprequest_sensors": "Cho phép <b>",
        "permgrouprequest_sms": "Cho phép <b>",
        "permgrouprequest_storage": "Cho phép <b>",
        "permgrouprequestdetail_location": "Ứng dụng này sẽ chỉ có quyền truy cập vào vị trí khi bạn đang sử dụng ứng dụng này",
        "permlab_acceptHandover": "tiếp tục cuộc gọi từ một ứng dụng khác",
        "permlab_accessBackgroundLocation": "truy cập vào vị trí trong nền",
        "permlab_accessCoarseLocation": "chỉ truy cập vị trí gần đúng (dựa trên mạng) trong nền trước",
        "permlab_accessDrmCertificates": "truy cập chứng chỉ DRM",
        "permlab_accessFineLocation": "chỉ truy cập vị trí chính xác trong nền trước",
        "permlab_accessImsCallService": "truy cập dịch vụ gọi điện qua IMS",
        "permlab_accessLocationExtraCommands": "truy cập vào các lệnh của nhà cung cấp vị trí bổ sung",
        "permlab_accessNetworkConditions": "quan sát các điều kiện mạng",
        "permlab_accessNetworkState": "xem kết nối mạng",
        "permlab_accessNotifications": "truy cập thông báo",
        "permlab_accessWifiState": "xem kết nối Wi-Fi",
        "permlab_accessWimaxState": "kết nối và ngắt kết nối khỏi WiMAX",
        "permlab_access_notification_policy": "truy cập Không làm phiền",
        "permlab_activityRecognition": "nhận dạng hoạt động thể chất",
        "permlab_addVoicemail": "thêm thư thoại",
        "permlab_answerPhoneCalls": "trả lời cuộc gọi điện thoại",
        "permlab_audioWrite": "sửa đổi bộ sưu tập nhạc",
        "permlab_bindCarrierMessagingService": "liên kết với dịch vụ nhắn tin của nhà cung cấp dịch vụ",
        "permlab_bindCarrierServices": "liên kết với dịch vụ của nhà cung cấp",
        "permlab_bindConditionProviderService": "liên kết với dịch vụ trình cung cấp điều kiện",
        "permlab_bindDreamService": "liên kết với dịch vụ dream",
        "permlab_bindNotificationListenerService": "liên kết với dịch vụ trình xử lý thông báo",
        "permlab_bind_connection_service": "tương tác với dịch vụ điện thoại",
        "permlab_bind_incall_service": "tương tác với màn hình trong cuộc gọi",
        "permlab_bluetooth": "ghép nối với thiết bị Bluetooth",
        "permlab_bluetoothAdmin": "truy cập cài đặt Bluetooth",
        "permlab_bodySensors": "truy cập cảm biến cơ thể (như máy đo nhịp tim)",
        "permlab_broadcastSticky": "gửi truyền phát hấp dẫn người xem",
        "permlab_callCompanionApp": "xem và kiểm soát cuộc gọi thông qua hệ thống.",
        "permlab_callPhone": "gọi trực tiếp số điện thoại",
        "permlab_camera": "chụp ảnh và quay video",
        "permlab_changeNetworkState": "thay đổi kết nối mạng",
        "permlab_changeTetherState": "thay đổi kết nối được dùng làm điểm truy cập Internet",
        "permlab_changeWifiMulticastState": "cho phép thu tín hiệu Wi-Fi Đa hướng",
        "permlab_changeWifiState": "kết nối và ngắt kết nối Wi-Fi",
        "permlab_changeWimaxState": "thay đổi trạng thái WiMAX",
        "permlab_connection_manager": "quản lý kết nối viễn thông",
        "permlab_control_incall_experience": "cung cấp trải nghiệm người dùng trong cuộc gọi",
        "permlab_createNetworkSockets": "có quyền truy cập mạng đầy đủ",
        "permlab_disableKeyguard": "vô hiệu hóa khóa màn hình của bạn",
        "permlab_enableCarMode": "bật chế độ trên ô tô",
        "permlab_expandStatusBar": "mở rộng/thu gọn thanh trạng thái",
        "permlab_foregroundService": "chạy dịch vụ trên nền trước",
        "permlab_getAccounts": "tìm tài khoản trên thiết bị",
        "permlab_getPackageSize": "đo dung lượng lưu trữ ứng dụng",
        "permlab_getTasks": "truy xuất các ứng dụng đang chạy",
        "permlab_handoverStatus": "nhận trạng thái chuyển của Android Beam",
        "permlab_imagesWrite": "sửa đổi bộ sưu tập ảnh",
        "permlab_install_shortcut": "cài đặt lối tắt",
        "permlab_invokeCarrierSetup": "gọi ra ứng dụng cấu hình do nhà cung cấp dịch vụ cung cấp",
        "permlab_killBackgroundProcesses": "đóng ứng dụng khác",
        "permlab_manageFace": "quản lý phần cứng xác thực khuôn mặt",
        "permlab_manageFingerprint": "quản lý phần cứng vân tay",
        "permlab_manageNetworkPolicy": "quản lý chính sách mạng",
        "permlab_manageOwnCalls": "định tuyến cuộc gọi thông qua hệ thống",
        "permlab_manageProfileAndDeviceOwners": "quản lý chủ sở hữu thiết bị và hồ sơ",
        "permlab_mediaLocation": "đọc vị trí từ bộ sưu tập phương tiện",
        "permlab_modifyAudioSettings": "thay đổi cài đặt âm thanh của bạn",
        "permlab_modifyNetworkAccounting": "sửa đổi hạch toán sử dụng mạng",
        "permlab_nfc": "kiểm soát Liên lạc trường gần",
        "permlab_persistentActivity": "đặt ứng dụng luôn chạy",
        "permlab_processOutgoingCalls": "định tuyến lại cuộc gọi đi",
        "permlab_readCalendar": "Đọc chi tiết và sự kiện lịch",
        "permlab_readCallLog": "đọc nhật ký cuộc gọi",
        "permlab_readCellBroadcasts": "đọc tin nhắn quảng bá",
        "permlab_readContacts": "đọc danh sách liên hệ của bạn",
        "permlab_readHistoryBookmarks": "đọc lịch sử và dấu trang Web của bạn",
        "permlab_readInstallSessions": "đọc phiên cài đặt",
        "permlab_readNetworkUsageHistory": "đọc quá trình sử dụng mạng trước đây",
        "permlab_readPhoneNumbers": "đọc số điện thoại",
        "permlab_readPhoneState": "đọc trạng thái và nhận dạng của điện thoại",
        "permlab_readSms": "đọc tin nhắn văn bản của bạn (SMS hoặc MMS)",
        "permlab_readSyncSettings": "đọc cài đặt đồng bộ hóa",
        "permlab_readSyncStats": "đọc thống kê đồng bộ hóa",
        "permlab_receiveBootCompleted": "chạy khi khởi động",
        "permlab_receiveMms": "nhận tin nhắn văn bản (MMS)",
        "permlab_receiveSms": "nhận tin nhắn văn bản (SMS)",
        "permlab_receiveWapPush": "nhận tin nhắn văn bản (WAP)",
        "permlab_recordAudio": "ghi âm",
        "permlab_register_call_provider": "đăng ký kết nối viễn thông mới",
        "permlab_register_sim_subscription": "đăng ký kết nối SIM viễn thông mới",
        "permlab_removeDrmCertificates": "xóa chứng chỉ DRM",
        "permlab_reorderTasks": "sắp xếp lại những ứng dụng đang chạy",
        "permlab_requestDeletePackages": "yêu cầu xóa gói",
        "permlab_requestIgnoreBatteryOptimizations": "hỏi để bỏ qua tối ưu hóa pin",
        "permlab_requestInstallPackages": "yêu cầu gói cài đặt",
        "permlab_requestPasswordComplexity": "cần biết độ phức tạp của khóa màn hình",
        "permlab_route_media_output": "định tuyến thiết bị ra phương tiện",
        "permlab_runInBackground": "chạy trong nền",
        "permlab_sdcardRead": "đọc nội dung của bộ nhớ dùng chung",
        "permlab_sdcardWrite": "sửa đổi hoặc xóa nội dung của bộ nhớ dùng chung",
        "permlab_sendSms": "gửi và xem tin nhắn SMS",
        "permlab_setAlarm": "đặt báo thức",
        "permlab_setInputCalibration": "thay đổi hiệu chỉnh thiết bị đầu vào",
        "permlab_setTimeZone": "đặt múi giờ",
        "permlab_setWallpaper": "đặt hình nền",
        "permlab_setWallpaperHints": "điều chỉnh kích thước hình nền của bạn",
        "permlab_sim_communication": "gửi lệnh đến SIM",
        "permlab_startViewPermissionUsage": "cấp quyền xem",
        "permlab_statusBar": "vô hiệu hóa hoặc sửa đổi thanh trạng thái",
        "permlab_statusBarService": "trở thành thanh trạng thái",
        "permlab_subscribedFeedsRead": "đọc nguồn cấp dữ liệu đã đăng ký",
        "permlab_systemAlertWindow": "Ứng dụng này có thể xuất hiện ở phía trên cùng của các ứng dụng khác",
        "permlab_transmitIr": "phát hồng ngoại",
        "permlab_uninstall_shortcut": "gỡ cài đặt lối tắt",
        "permlab_useBiometric": "sử dụng phần cứng sinh trắc học",
        "permlab_useDataInBackground": "sử dụng dữ liệu trong nền",
        "permlab_useFaceAuthentication": "sử dụng phần cứng xác thực khuôn mặt",
        "permlab_useFingerprint": "sử dụng phần cứng vân tay",
        "permlab_use_sip": "thực hiện/nhận các cuộc gọi qua SIP",
        "permlab_vibrate": "kiểm soát rung",
        "permlab_videoWrite": "sửa đổi bộ sưu tập video",
        "permlab_wakeLock": "ngăn điện thoại chuyển sang chế độ ngủ",
        "permlab_writeCalendar": "thêm hoặc sửa đổi các sự kiện lịch và gửi email cho khách mà chủ sở hữu không hề biết",
        "permlab_writeCallLog": "ghi nhật ký cuộc gọi",
        "permlab_writeContacts": "sửa đổi danh sách liên hệ của bạn",
        "permlab_writeGeolocationPermissions": "sửa đổi các quyền về vị trí địa lý của Trình duyệt",
        "permlab_writeHistoryBookmarks": "viết lịch sử và dấu trang web của bạn",
        "permlab_writeSettings": "sửa đổi các tùy chọn cài đặt hệ thống",
        "permlab_writeSyncSettings": "chuyển đổi bật và tắt đồng bộ hóa"
    }
}
